{
  "type": "service_account",
  "project_id": "mototaxis-d4327",
  "private_key_id": "f18f3e4a737cbf48e03bf55588bef2b66379f672",
  "private_key": "-----BEGIN PRIVATE KEY-----\nMIIEvAIBADANBgkqhkiG9w0BAQEFAASCBKYwggSiAgEAAoIBAQCZL7nJBgTUKLDw\nXc8pU6707NVY0saZDYrxz5+XOuV4TCM/RRqJLEvVhZutr/Q4uUTDew+LF89rrMwO\nJFCfUdb6u6gGysiMH+qIqXeJssELFk8bqzCh2Lx77ONAXj/sJQcOfD2g9gRoCze2\nM0wrJj05ncPzwkSMUmIGwT+DwHUit9Y/6b+zBi+83peFs/0BdQdt9JctjQsPW1kq\nbCRB6GlTnrwA/HqiFphDy6OX7g7te4myBSoEqVqxEAe4jgivhyDTUqG4Gq8yyqKw\nNe8G5CBlO8N+dRMltZKFeWT/X/vOJjUvsi0C/0+fBpIV3kJJk9WMrpUtzggaqV4A\nAKSKgBEhAgMBAAECggEANXsgmUrFJ873C0wtFcgWFoOS7rpTxL6iKk8q8BELaUbn\nrWCyZX62ERte4TJDiQRBuh++KvkKnRSMf0l1blITxKD8hjaI8sb3ynOj/MqQNA87\nWjUXuwGguIFZS7E8DvVUc92zZH1Px4VXE4DwUEY+7N0kOvexl+3xNFuGkbiBDLfo\nkcr3nqa/RWa8siW+LySTi29eN0ptytKs0/0hpCC0EDYlJhx3kwoZmSFO1Bhfg+Rd\n1tM+sgvKX3Shd5GnTAO709TSitYGQDv38dwZmvZ4llVhmEWnktGzQVgjyH7hwDRI\nz2DureR9oMHAk5XVuVOYe2+GZF1XY85QJkCaAQugIwKBgQDRgkMVxgf0SirHsvCu\n0v1V5GJHujjVnZiAL/orE9IHO/rewk/7FAgRK092an8se4oKDOIVsFyW17hvRm6x\noZr3DmZ1RTUbh7caTGWHBcKTC3YKVgifuoqrgoaSk+1GryVt4642YxpvQE5dKI3G\n0rS27Qr0yDN6+QCCaDTVZGcBjwKBgQC7Lek+CHfWBaRJXbEo0B9lltpz2clf38ui\nbqT/U0NgOB5Afuf1M96OIXQpC1yYeXl+ONM+P+XNm7crSbPO6Pdhp8e+vNA0qFxR\nZ9X78c1HgKzkG+3Gj6fx6g4dcuActaD0MHGzP75CRdT5c03WnDW3NoF21SVAy7wX\naAM2S2kKTwKBgFA/Ao7+cOGC3uvqgAGWUu5pMbOjgk1ftZ+zwLBrQREASlC0QIo8\n2/InkqIanGdfUjoTQS1pha1JJx2H7rIe4goq+9eDEJpg2yM5i9GxxRspUqcW2OrF\nOoQC1KSkAEgIod97S6kNQHzINru74sH6xrkiBgZIAF/jq+xHGaV6dXHFAoGAOSoh\nVJejeZKJhPp/M3a0UANNPhpiPMyNVVMzQuL77bPV0V6wmps3ufKPlkVpBwv6Rck3\nAojjNvL6ctb0ehl+C64A+8iQUbSlVRtAJ8zGI7MxmgzJhl2zLdeMbgP6W+pAeLMe\n1l5+TaEkFPbY69UTNpwH1/HqiapvDDrw2DEZqFMCgYA/ConK1tMIDfiO3mL8cwBE\nIDHyRasZYAsKoCF8JjHud2Lys9KKEY4jdQ4PpizBvWWCN2Bvk2Bxdfg1bmh/ZUmd\nz5b+WzAEwstM83ceudFrjA/jk1msraADbglUyJmBHG77P7o8uuH0thNCWEaQCHOV\n5rwYHa8v7JhZyKsFXtnW3g==\n-----END PRIVATE KEY-----\n",
  "client_email": "firebase-adminsdk-i3zq9@mototaxis-d4327.iam.gserviceaccount.com",
  "client_id": "115214129725560781645",
  "auth_uri": "https://accounts.google.com/o/oauth2/auth",
  "token_uri": "https://oauth2.googleapis.com/token",
  "auth_provider_x509_cert_url": "https://www.googleapis.com/oauth2/v1/certs",
  "client_x509_cert_url": "https://www.googleapis.com/robot/v1/metadata/x509/firebase-adminsdk-i3zq9%40mototaxis-d4327.iam.gserviceaccount.com"
}
